%YAML 1.1
%TAG !u! tag:unity3d.com,2011:
--- !u!114 &11400000
MonoBehaviour:
  m_ObjectHideFlags: 0
  m_CorrespondingSourceObject: {fileID: 0}
  m_PrefabInstance: {fileID: 0}
  m_PrefabAsset: {fileID: 0}
  m_GameObject: {fileID: 0}
  m_Enabled: 1
  m_EditorHideFlags: 0
  m_Script: {fileID: 11500000, guid: 19f279aded72cb741b4de89a54359dd4, type: 3}
  m_Name: GettingStarted_MixedRealitySpatialAwarenessSystemProfile
  m_EditorClassIdentifier: 
  isCustomProfile: 1
  observerConfigurations:
  - componentType:
      reference: Microsoft.MixedReality.Toolkit.WindowsMixedReality.SpatialAwareness.WindowsMixedRealitySpatialMeshObserver,
        Microsoft.MixedReality.Toolkit.Providers.WindowsMixedReality
    componentName: Windows Mixed Reality Spatial Mesh Observer
    priority: 0
    runtimePlatform: 8
    observerProfile: {fileID: 11400000, guid: f790d6734bc24954a93674bb2a55c392, type: 2}
